{
  "code": "0",
  "message": "接口返参提示信息",
  "result": {
    "tvDynamicTitle": "广告标题",
    "llMyCurriculum": "我的课程",
    "llAutonomyStudy": "自主学习",
    "llClassroomTeaching": "课堂教学",
    "llTask": "作业",
    "rlExamination": "\"今日任务\"+\"<font color='#FC3C3C'>24</font>\"",
    "rlScienceAnalysis": "学情分析",
    "rlMyClass": "我的班级",
    "rlCorrecting": "批改",
    "rlCexplore": "合作探究",
    "llBaiduRncyclopedia": "百度百科"
  }
}